@startuml

class Distribution {
    params : dict
    icdf()
    pdf()
}

class CPTDistribution {
    cpt : list
    states : list
    parent_states : list
    parents: list
}

Distribution <|-- CPTDistribution

@enduml